<?xml version="1.0" encoding="utf-8"?>
<!-- Generator: Adobe Illustrator 23.0.4, SVG Export Plug-In . SVG Version: 6.00 Build 0)  -->
<svg version="1.1" id="Layer_1" xmlns="http://www.w3.org/2000/svg" xmlns:xlink="http://www.w3.org/1999/xlink" x="0px" y="0px"
	 viewBox="0 0 100 100" style="enable-background:new 0 0 100 100;" xml:space="preserve">
<style type="text/css">
	.st0{fill:none;stroke:#A7A9AC;stroke-width:2;stroke-linecap:round;stroke-linejoin:round;stroke-miterlimit:10;}
	.st1{fill:#00B6CD;}
	.st2{fill:#FFFFFF;stroke:#A7A9AC;stroke-width:2;stroke-linecap:round;stroke-linejoin:round;stroke-miterlimit:10;}
	.st3{fill:none;stroke:#A7A9AC;stroke-width:3;stroke-miterlimit:10;}
	.st4{fill:none;stroke:#FFCC06;stroke-width:2;stroke-linecap:round;stroke-linejoin:round;stroke-miterlimit:10;}
	.st5{fill:#A7A9AC;}
	.st6{fill:#FFFFFF;}
</style>
<g>
	<path class="st0" d="M38.4,58.9c2.1,8.9,12.3,19.6,19.9,25.9"/>
	<path class="st0" d="M47.8,48c11.1,1.6,28.4,13.6,28.4,13.6s1.1,0.6,2.8,2"/>
	<path class="st1" d="M53.4,60.7l1.7-2.1c0,0,2.4-2.5-0.8-5S39.1,41,35.5,45.1s6.8,12.7,10,15.2C48.8,62.8,51,63.4,53.4,60.7z"/>
	<path class="st0" d="M53.9,63.6l2.2-2.7c0,0,3.1-3.2-1.2-6.6S37.9,39.6,33.4,45c-4.5,5.4,5.8,14.3,10.2,17.8
		C47.9,66.2,50.7,67.1,53.9,63.6z"/>
	<path class="st2" d="M61.8,61.7c0,0-2.5,4.3-5.7,6.8"/>
	<path class="st2" d="M64,65.8c0,0-1.9,3.3-4.4,5.3"/>
	<circle class="st3" cx="50" cy="50" r="46"/>
	<path class="st4" d="M59.1,39.6c0,0,0,1.3,0.7,2.3s2.1,1.2,2.1,1.2s-1.3,0-2.3,0.7c-0.9,0.7-1.2,2.1-1.2,2.1s0-1.3-0.7-2.3
		s-2.1-1.2-2.1-1.2s1.3,0,2.3-0.7C58.9,40.9,59.1,39.6,59.1,39.6z"/>
	<path class="st4" d="M33.9,62.4c0,0,0,1.5,0.8,2.4c0.8,1,2.2,1.2,2.2,1.2s-1.5,0-2.4,0.8c-1,0.8-1.2,2.2-1.2,2.2s0-1.4-0.8-2.4
		c-0.8-1-2.2-1.2-2.2-1.2s1.5,0,2.4-0.8C33.7,63.9,33.9,62.4,33.9,62.4z"/>
	<path class="st4" d="M30.1,38.1c0,0,0,1.2,0.6,1.9s1.8,1,1.8,1s-1.2,0-1.9,0.6s-1,1.8-1,1.8s0-1.2-0.6-1.9s-1.8-1-1.8-1
		s1.2,0,1.9-0.6C29.9,39.3,30.1,38.1,30.1,38.1z"/>
	<circle class="st5" cx="81.6" cy="65.2" r="1.1"/>
	<circle class="st5" cx="65.7" cy="63.6" r="1.1"/>
	<circle class="st1" cx="35.6" cy="38.1" r="1.1"/>
	<circle class="st1" cx="44.9" cy="43.1" r="1.1"/>
	<circle class="st1" cx="42.1" cy="37.7" r="1.1"/>
	<circle class="st1" cx="47" cy="33.6" r="1.1"/>
	<circle class="st1" cx="49.2" cy="25.2" r="1.1"/>
	<circle class="st1" cx="51.8" cy="31" r="1.1"/>
	<circle class="st1" cx="44.3" cy="21.9" r="1.1"/>
	<circle class="st1" cx="41.4" cy="16.8" r="1.1"/>
	<circle class="st1" cx="46.9" cy="15.7" r="1.1"/>
	<circle class="st1" cx="40.3" cy="32.9" r="1.1"/>
	<circle class="st1" cx="44.7" cy="28.5" r="1.1"/>
	<circle class="st1" cx="38.8" cy="25.6" r="1.1"/>
	<circle class="st1" cx="34.3" cy="31.1" r="1.1"/>
	<circle class="st1" cx="48" cy="38.3" r="1.1"/>
	<circle class="st1" cx="54" cy="37.2" r="1.1"/>
	<circle class="st1" cx="51" cy="42.6" r="1.1"/>
	<circle class="st6" cx="46.1" cy="52.1" r="1.1"/>
	<circle class="st6" cx="50.8" cy="59" r="1.1"/>
	<circle class="st6" cx="39.6" cy="47.1" r="1.1"/>
	<circle class="st6" cx="41.4" cy="51.6" r="1.1"/>
</g>
</svg>
