<?xml version="1.0" encoding="utf-8"?>
<!-- Generator: Adobe Illustrator 23.0.4, SVG Export Plug-In . SVG Version: 6.00 Build 0)  -->
<svg version="1.1" id="Layer_1" xmlns="http://www.w3.org/2000/svg" xmlns:xlink="http://www.w3.org/1999/xlink" x="0px" y="0px"
	 viewBox="0 0 100 100" style="enable-background:new 0 0 100 100;" xml:space="preserve">
<style type="text/css">
	.st0{fill:#00B6CD;}
	.st1{fill:none;stroke:#A7A9AC;stroke-width:3;stroke-miterlimit:10;}
	.st2{fill:none;stroke:#A7A9AC;stroke-width:2;stroke-linecap:round;stroke-linejoin:round;stroke-miterlimit:10;}
	.st3{fill:#A7A9AC;}
</style>
<g>
	<path class="st0" d="M70.2,38c-1-1-2.6-1.3-3.7-0.7c-1.1,0.5-1.1,1.8-1,2.4c0,0.5-0.2,1.7-0.4,2.5C62.2,50.5,53.4,54,40.8,53.8
		c-4.6-0.1-10.5-1.1-15.5,0.1c-5.3,1.3-6.6,4.5-6.7,5.7c0,1,1.4,2,2.8,0.8c6.3-5.3,16.2-1.6,22.9-1.1c5.2,0.4,10-0.8,14.3-2.7
		c3.7-1.6,6.9-4,9.1-6.9c1.7-2.3,3.6-5.7,3.7-8.7C71.3,39.9,71,38.8,70.2,38z"/>
	<circle class="st1" cx="50" cy="50" r="46"/>
	<path class="st2" d="M23.8,62.1c0,0,1.6-3.9,11.1-1.6s31.7,1.9,37.5-16.2"/>
	<path class="st2" d="M37.3,61.2c0,0-2,8.5,5.8,11.7"/>
	<path class="st2" d="M44.4,61.5c0,0-0.3,9.1,7,11.3"/>
	<path class="st2" d="M51.4,61.2c0,0-0.1,9.6,11.1,10.9"/>
	<path class="st2" d="M58.8,58.8c0,0,0.3,9.9,13,8.9"/>
	<path class="st2" d="M30.2,60.2c0,0-2,5.6,2.4,10.1"/>
	<path class="st2" d="M65.1,55.5c0,0,1.4,6.4,9.8,5.7"/>
	<path class="st2" d="M69.3,51.2c0,0,3.7,4.9,8.9,2"/>
	<path class="st2" d="M18.2,44.3c0,0,1.9,7,8.6,3.9c6.7-3.1,18-16.9,28.4-19.2s18.5,2.7,18.5,2.7s-7.3-11.9-22.3-6.1
		S35.9,38.8,23.7,40.8"/>
	<path class="st2" d="M20.8,43.6c0,0,0.6,4.9,6.7,4"/>
	<path class="st2" d="M23.5,43.4c0.3,1,1.9,3.5,6.9,2.3"/>
	<path class="st2" d="M26.6,43c0,0,2,3.4,6.3,1.1"/>
	<circle class="st3" cx="17.4" cy="41.4" r="1.1"/>
	<circle class="st3" cx="22.3" cy="64.4" r="1.1"/>
	<circle class="st3" cx="75.4" cy="33.7" r="1.1"/>
	<circle class="st3" cx="74.8" cy="67.8" r="1.1"/>
</g>
</svg>
