<?xml version="1.0" encoding="utf-8"?>
<!-- Generator: Adobe Illustrator 23.1.1, SVG Export Plug-In . SVG Version: 6.00 Build 0)  -->
<svg version="1.1" id="Layer_1" xmlns="http://www.w3.org/2000/svg" xmlns:xlink="http://www.w3.org/1999/xlink" x="0px" y="0px"
	 viewBox="0 0 79 79" style="enable-background:new 0 0 79 79;" xml:space="preserve">
<style type="text/css">
	.st0{clip-path:url(#SVGID_2_);fill:#FFFFFF;}
	.st1{clip-path:url(#SVGID_4_);fill:none;stroke:#A6A8AB;stroke-width:2.46;stroke-miterlimit:10;}
	
		.st2{clip-path:url(#SVGID_4_);fill:none;stroke:#A6A8AB;stroke-width:1.64;stroke-linecap:round;stroke-linejoin:round;stroke-miterlimit:10;}
	.st3{clip-path:url(#SVGID_4_);fill:#FFCC05;}
	.st4{fill:none;stroke:#A6A8AB;stroke-width:1.64;stroke-linecap:round;stroke-linejoin:round;stroke-miterlimit:10;}
	.st5{clip-path:url(#SVGID_6_);fill:#FFFFFF;}
	.st6{clip-path:url(#SVGID_6_);fill:#A6A8AB;}
	.st7{clip-path:url(#SVGID_6_);fill:none;stroke:#00B5CC;stroke-width:1.64;stroke-linecap:round;stroke-miterlimit:10;}
	
		.st8{clip-path:url(#SVGID_6_);fill:none;stroke:#FFCC05;stroke-width:1.64;stroke-linecap:round;stroke-linejoin:round;stroke-miterlimit:10;}
	.st9{clip-path:url(#SVGID_6_);fill:#00B5CC;}
</style>
<g>
	<defs>
		<rect id="SVGID_1_" width="79" height="79"/>
	</defs>
	<clipPath id="SVGID_2_">
		<use xlink:href="#SVGID_1_"  style="overflow:visible;"/>
	</clipPath>
	<path class="st0" d="M39.5,77.5c21,0,38-17,38-38s-17-38-38-38s-38,17-38,38S18.5,77.5,39.5,77.5"/>
</g>
<g>
	<defs>
		<rect id="SVGID_3_" width="79" height="79"/>
	</defs>
	<clipPath id="SVGID_4_">
		<use xlink:href="#SVGID_3_"  style="overflow:visible;"/>
	</clipPath>
	<circle class="st1" cx="39.5" cy="39.5" r="37.7"/>
	<path class="st2" d="M39.9,54.9v8.5c0,3.6-2.9,4.6-6.5,4.6c-3.6,0-6.5-1.1-6.5-4.6v-8.5"/>
	<path class="st3" d="M20,33.7c0.6,0,1,0.5,1,1c0,0.6-0.5,1-1,1c-0.6,0-1-0.5-1-1C19,34.2,19.5,33.7,20,33.7"/>
	<path class="st3" d="M49.5,49.2c0.6,0,1,0.5,1,1s-0.5,1-1,1c-0.6,0-1-0.5-1-1S49,49.2,49.5,49.2"/>
	<path class="st2" d="M54.2,57.8V27.5c0-7.7-6.3-14-14-14c-0.8,0-1.6,0.1-2.3,0.4c-0.4,0.1-0.8,0-1-0.2c-1.7-1.7-4-2.7-6.6-2.7
		c-9.7,0-17.5,7.8-17.5,17.5v29.3 M19.4,39.9c0,1,0.8,1.7,1.7,1.7h0.2c0.8,8,5.9,16,12.1,16s11.3-8,12.1-16h0.2c1,0,1.7-0.8,1.7-1.7
		v-2.4c0-1-0.8-1.7-1.7-1.7h-0.3c-0.1,0-0.1,0-0.2,0 M35.1,18.1v8.5c-0.7,14.4-12.7,13-12.7,13 M46,33.2c0,0-9.2,1.1-8.4-11"/>
</g>
<line class="st4" x1="59.9" y1="45.4" x2="59.9" y2="63.1"/>
<g>
	<defs>
		<rect id="SVGID_5_" width="79" height="79"/>
	</defs>
	<clipPath id="SVGID_6_">
		<use xlink:href="#SVGID_5_"  style="overflow:visible;"/>
	</clipPath>
	<path class="st5" d="M59.9,46.2c-1.7,0-3.1-1.4-3.1-3.1V32.4c0-0.5,0.4-0.8,0.8-0.8h4.6c0.5,0,0.8,0.4,0.8,0.8v10.7
		C63,44.8,61.6,46.2,59.9,46.2"/>
	<path class="st6" d="M62.2,30.8h-4.6c-0.9,0-1.6,0.7-1.6,1.6v10.7c0,2.2,1.8,3.9,3.9,3.9s3.9-1.8,3.9-3.9V32.4
		C63.8,31.5,63.1,30.8,62.2,30.8 M62.2,32.4v10.7c0,1.3-1,2.3-2.3,2.3c-1.3,0-2.3-1-2.3-2.3V32.4H62.2z"/>
	<path class="st7" d="M59.4,43.8L59.4,43.8c0.9,0,1.7-1,1.7-2.1V31.6"/>
	<path class="st5" d="M60,35.5l-13.3-1.3c-0.4,0-0.7-0.4-0.7-0.8v-7.6c0-0.4,0.3-0.8,0.7-0.8L60,23.9c0,0,0,0,0.1,0
		c0.2,0,0.4,0.1,0.6,0.2c0.2,0.2,0.3,0.4,0.3,0.6v10c0,0.2-0.1,0.5-0.3,0.6C60.5,35.5,60.3,35.5,60,35.5C60,35.5,60,35.5,60,35.5"/>
	<path class="st6" d="M60.1,23c0,0-0.1,0-0.1,0l-13.3,1.2c-0.8,0.1-1.5,0.8-1.5,1.6v7.6c0,0.8,0.6,1.5,1.5,1.6l13.3,1.3
		c0.1,0,0.1,0,0.2,0c0.4,0,0.8-0.2,1.1-0.4c0.3-0.3,0.5-0.8,0.5-1.2v-10c0-0.5-0.2-0.9-0.5-1.2C60.9,23.2,60.5,23,60.1,23
		 M60.1,24.7v10l-13.3-1.3v-7.6L60.1,24.7z"/>
	<path class="st5" d="M42.1,35.5c-0.2,0-0.4-0.1-0.5-0.2c-0.2-0.2-0.3-0.4-0.3-0.7v-10c0-0.3,0.1-0.5,0.3-0.6
		c0.1-0.1,0.3-0.2,0.5-0.2c0.1,0,0.1,0,0.2,0l4.6,1.2c0.4,0.1,0.6,0.4,0.6,0.8v7.6c0,0.4-0.2,0.7-0.6,0.8l-4.6,1.3
		C42.3,35.5,42.2,35.5,42.1,35.5"/>
	<path class="st6" d="M42.1,23c-0.4,0-0.7,0.1-1,0.3c-0.4,0.3-0.6,0.8-0.6,1.3v10c0,0.5,0.2,1,0.7,1.3c0.3,0.2,0.6,0.3,1,0.3
		c0.1,0,0.3,0,0.4-0.1l4.6-1.3c0.7-0.2,1.2-0.8,1.2-1.6v-7.6c0-0.8-0.5-1.4-1.2-1.6l-4.6-1.2C42.4,23.1,42.3,23,42.1,23 M42.1,24.7
		l4.6,1.2v7.6l-4.6,1.3V24.7z"/>
	<path class="st5" d="M60.1,36.7c-3.9,0-7-3.1-7-7c0-3.8,3.1-7,7-7s7,3.1,7,7C67,33.5,63.9,36.7,60.1,36.7"/>
	<path class="st6" d="M60.1,21.9c-4.3,0-7.8,3.5-7.8,7.8c0,4.3,3.5,7.8,7.8,7.8c4.3,0,7.8-3.5,7.8-7.8
		C67.9,25.4,64.4,21.9,60.1,21.9 M60.1,23.5c3.4,0,6.2,2.8,6.2,6.2s-2.8,6.2-6.2,6.2c-3.4,0-6.2-2.8-6.2-6.2S56.7,23.5,60.1,23.5"/>
	<path class="st5" d="M60.1,32.2c-1.4,0-2.5-1.1-2.5-2.5c0-1.4,1.1-2.5,2.5-2.5c1.4,0,2.5,1.1,2.5,2.5
		C62.5,31.1,61.4,32.2,60.1,32.2"/>
	<path class="st6" d="M60.1,26.4c-1.8,0-3.3,1.5-3.3,3.3s1.5,3.3,3.3,3.3c1.8,0,3.3-1.5,3.3-3.3S61.9,26.4,60.1,26.4 M60.1,28
		c0.9,0,1.7,0.7,1.7,1.7c0,0.9-0.7,1.7-1.7,1.7c-0.9,0-1.7-0.7-1.7-1.7C58.4,28.8,59.1,28,60.1,28"/>
	<path class="st8" d="M30.7,19.1C24.5,20.8,20,25.4,20,32 M32.2,14.9L32.2,14.9c-8.6,0-15.6,7-15.6,15.6v19.1 M49.5,53.4v4.4
		 M45.6,53.4v4.4 M20.5,53.4v4.4 M16.5,53.4v4.4"/>
	<path class="st9" d="M60.1,28.7c0.6,0,1,0.5,1,1c0,0.6-0.5,1-1,1c-0.6,0-1-0.5-1-1C59,29.1,59.5,28.7,60.1,28.7"/>
	<path class="st7" d="M60,34.7c2.8,0,5-2.3,5-5s-2.3-5-5-5"/>
</g>
</svg>
