<?xml version="1.0" encoding="utf-8"?>
<!-- Generator: Adobe Illustrator 23.0.4, SVG Export Plug-In . SVG Version: 6.00 Build 0)  -->
<svg version="1.1" id="Layer_1" xmlns="http://www.w3.org/2000/svg" xmlns:xlink="http://www.w3.org/1999/xlink" x="0px" y="0px"
	 viewBox="0 0 100 100" style="enable-background:new 0 0 100 100;" xml:space="preserve">
<style type="text/css">
	.st0{fill:none;stroke:#A7A9AC;stroke-width:3;stroke-miterlimit:10;}
	.st1{fill:none;stroke:#A7A9AC;stroke-width:2;stroke-linecap:round;stroke-linejoin:round;stroke-miterlimit:10;}
	.st2{fill:#FFCC06;}
	.st3{fill:#FFFFFF;stroke:#A7A9AC;stroke-width:2;stroke-linecap:round;stroke-linejoin:round;stroke-miterlimit:10;}
	.st4{fill:#A7A9AC;}
</style>
<g>
	<circle class="st0" cx="50" cy="50" r="46"/>
	<path class="st1" d="M65.4,54.4c3.9,8.3,2.4,23.1,0.3,32.7"/>
	<path class="st1" d="M51.2,51.6c-7.7,8.1-14,28.2-14,28.2S36.4,82,35.7,86"/>
	<path class="st2" d="M54.8,65.3l-2.6-0.6c0,0-3.4-0.5-2.4-4.4s4.2-19.5,9.5-18.4c5.4,1.1,2.5,14.1,1.5,18.2
		C59.8,64.1,58.5,65.8,54.8,65.3z"/>
	<path class="st1" d="M56.1,67.7l-3.3-0.8c0,0-4.4-0.6-3.1-6c1.3-5.3,4.2-22,11.1-20.6s4.3,14.8,3,20.2
		C62.4,66.1,60.7,68.4,56.1,67.7z"/>
	<path class="st3" d="M48.7,71c0,0,4.6,1.8,8.7,1.8"/>
	<path class="st3" d="M48.7,75.4c0,0,3.5,1.4,6.8,1.4"/>
	<path class="st1" d="M15.8,54.5l48-23.8c3.1-1.6,4.5-5.4,2.9-8.6l-0.4-0.9c-1.6-3.1-5.4-4.4-8.6-2.9L17,38.5"/>
	<circle class="st4" cx="61.5" cy="27.7" r="1.1"/>
	<circle class="st4" cx="58.6" cy="26.4" r="1.1"/>
	<circle class="st4" cx="62.2" cy="24.9" r="1.1"/>
	<circle class="st4" cx="58.2" cy="29.4" r="1.1"/>
	<circle class="st4" cx="55.5" cy="27.8" r="1.1"/>
	<circle class="st4" cx="55" cy="30.9" r="1.1"/>
	<circle class="st4" cx="52.1" cy="29.1" r="1.1"/>
	<circle class="st4" cx="51.6" cy="32.1" r="1.1"/>
	<line class="st1" x1="65.7" y1="40.3" x2="68.8" y2="42.3"/>
	<line class="st1" x1="66.6" y1="33.2" x2="74.6" y2="29.4"/>
	<line class="st1" x1="68" y1="36.5" x2="73.7" y2="37.2"/>
	<circle class="st4" cx="76.8" cy="37.8" r="1.1"/>
	<circle class="st4" cx="62.6" cy="38.2" r="1.1"/>
	<circle class="st4" cx="58.6" cy="76.8" r="1.1"/>
	<circle class="st4" cx="13.9" cy="39.8" r="1.1"/>
</g>
</svg>
