<?xml version="1.0" encoding="utf-8"?>
<!-- Generator: Adobe Illustrator 23.0.4, SVG Export Plug-In . SVG Version: 6.00 Build 0)  -->
<svg version="1.1" id="Layer_1" xmlns="http://www.w3.org/2000/svg" xmlns:xlink="http://www.w3.org/1999/xlink" x="0px" y="0px"
	 viewBox="0 0 100 100" style="enable-background:new 0 0 100 100;" xml:space="preserve">
<style type="text/css">
	.st0{fill:none;stroke:#A7A9AC;stroke-width:3;stroke-miterlimit:10;}
	.st1{fill:#00B6CD;}
	.st2{fill:none;stroke:#A7A9AC;stroke-width:2;stroke-linecap:round;stroke-linejoin:round;stroke-miterlimit:10;}
	.st3{fill:#FFFFFF;}
	.st4{fill:none;stroke:#FFFFFF;stroke-width:2;stroke-linecap:round;stroke-linejoin:round;stroke-miterlimit:10;}
	.st5{fill:#A7A9AC;}
	.st6{fill:none;stroke:#A7A9AC;stroke-width:1.5;stroke-linecap:round;stroke-linejoin:round;stroke-miterlimit:10;}
	.st7{fill:none;stroke:#A7A9AC;stroke-width:3;stroke-linecap:round;stroke-linejoin:round;stroke-miterlimit:10;}
</style>
<g>
	<circle class="st0" cx="50" cy="50" r="46"/>
	<path class="st1" d="M51.7,14.9l1.6-1.7c0,0,1.9-2.3,4.3,0.2s12.5,12,9.2,15.4s-11.6-4.6-14.1-7.2C50.3,19,49.6,17.2,51.7,14.9z"/>
	<path class="st2" d="M49.9,14.7l2.1-2.1c0,0,2.5-3,5.8,0.4s14.3,13.2,10.1,17.6S55,27,51.6,23.6C48.2,20.1,47.2,17.8,49.9,14.7z"/>
	<circle class="st3" cx="65" cy="28" r="0.9"/>
	<path class="st4" d="M61.3,20.2c1.1,1.2,3.9,3.9,4.3,5.7"/>
	<path class="st1" d="M69.9,55.9H53.2c-1.3,0-2.2,1.2-2,2.6l3.1,19.7c0.1,0.7,0.7,1.3,1.4,1.3h11.8c0.7,0,1.3-0.5,1.4-1.3l3.1-19.7
		C72.1,57.1,71.1,55.9,69.9,55.9z"/>
	<path class="st1" d="M43.7,33.2c1.3,0.8,3,0.4,3.8-1c0.8-1.3,0-2.5-1.4-3.3c-1.3-0.8-2.6-0.9-3.4,0.4C42,30.7,42.4,32.5,43.7,33.2z
		"/>
	<g>
		<g>
			<polygon class="st5" points="40.2,34.3 43.3,36.3 34.2,50.7 31.1,48.7 			"/>
		</g>
		<g>
			<polyline class="st2" points="26.3,68.6 23,72.9 15.9,68.4 27.2,46.5 38,53.3 30.8,62.7 			"/>
		</g>
	</g>
	<path class="st6" d="M42.7,36.6c0,0,3.6-0.5,5.6-5.3l-4.9-3.5c0,0-2.9,2.2-3.1,7.2"/>
	<circle class="st5" cx="28.6" cy="65.5" r="1.5"/>
	<path class="st7" d="M72.9,52H51.8c-1.6,0-2.8,1.5-2.6,3l3.9,23.3c0.1,0.9,0.9,1.5,1.8,1.5h14.9c0.9,0,1.6-0.6,1.8-1.5l3.9-23.3
		C75.7,53.5,74.5,52,72.9,52z"/>
	<path class="st7" d="M51.5,52c0-4.5,4.8-8.1,10.7-8.1S73,47.5,73,52H51.5z"/>
	<rect x="57.5" y="38.9" class="st7" width="8.6" height="5"/>
</g>
</svg>
