<?xml version="1.0" encoding="utf-8"?>
<!-- Generator: Adobe Illustrator 23.0.6, SVG Export Plug-In . SVG Version: 6.00 Build 0)  -->
<svg version="1.1" id="Layer_1" xmlns="http://www.w3.org/2000/svg" xmlns:xlink="http://www.w3.org/1999/xlink" x="0px" y="0px"
	 viewBox="0 0 55 55" style="enable-background:new 0 0 55 55;" xml:space="preserve">
<style type="text/css">
	.st0{fill:#BEC0C2;}
	.st1{fill:none;stroke:#BEC0C2;stroke-width:2;}
</style>
<polygon class="st0" points="24.7,20.5 24.7,22.9 27.6,22.9 27.6,34.5 30.3,34.5 30.3,20.5 "/>
<circle class="st1" cx="27.5" cy="27.5" r="26.5"/>
</svg>
