<?xml version="1.0" encoding="utf-8"?>
<!-- Generator: Adobe Illustrator 23.0.6, SVG Export Plug-In . SVG Version: 6.00 Build 0)  -->
<svg version="1.1" id="Layer_1" xmlns="http://www.w3.org/2000/svg" xmlns:xlink="http://www.w3.org/1999/xlink" x="0px" y="0px"
	 viewBox="0 0 333 234" style="enable-background:new 0 0 333 234;" xml:space="preserve">
<style type="text/css">
	.st0{fill:none;stroke:#FFFFFF;stroke-width:3;stroke-linecap:round;stroke-linejoin:round;stroke-miterlimit:10;}
	.st1{fill:#EF8322;}
	.st2{fill:#FFFFFF;}
</style>
<circle class="st0" cx="180.3" cy="117" r="13"/>
<g>
	<path class="st1" d="M7,0c0,0-7,0-7,7v220c0,0,0,7,7,7h319c0,0,7,0,7-7V7c0,0,0-7-7-7H7z"/>
</g>
<line class="st0" x1="313.5" y1="10.5" x2="322.5" y2="19.5"/>
<line class="st0" x1="322.5" y1="10.5" x2="313.5" y2="19.5"/>
<g>
	<path class="st2" d="M65,17.9L65,17.9c0.3,1.9,0.5,4.1,0.6,6.6c0.1,2.5,0,5.3-0.2,8.2c-0.2,2.9-0.5,6-1,9.2
		c-0.5,3.2-1.1,6.3-1.9,9.5c-0.8,3.1-1.6,6.1-2.7,9c-1,2.9-2.2,5.5-3.5,7.9c-1.3,2.4-2.8,4.4-4.4,6.1c-1.6,1.7-3.4,2.9-5.2,3.6
		c-2.3,0.9-4.2,1.2-5.8,1.1c-1.6-0.1-2.9-0.6-3.9-1.5c-1-0.8-1.7-2-2.1-3.4c-0.4-1.4-0.6-3-0.5-4.6c0.1-1.7,0.4-3.4,1-5.3
		c0.6-1.8,1.3-3.6,2.3-5.3c1-1.7,2.1-3.2,3.5-4.6c1.4-1.4,2.9-2.5,4.5-3.3c0.5-0.1,0.9-0.1,1.1,0.2c0.2,0.3,0.2,0.6-0.1,0.9l-2,1.8
		c-0.9,1-1.8,2.1-2.7,3.3c-0.9,1.2-1.7,2.6-2.5,3.9s-1.5,2.8-2,4.1c-0.6,1.4-1,2.7-1.3,3.9c-0.3,1.2-0.3,2.3-0.2,3.3
		s0.5,1.7,1.1,2.2c0.6,0.5,1.5,0.8,2.7,0.7s2.7-0.4,4.6-1.2c2.3-0.9,4.3-2.2,5.9-3.8c1.7-1.6,3.1-3.4,4.2-5.4c1.2-2,2.1-4.3,2.8-6.7
		c0.7-2.4,1.3-4.9,1.7-7.6s0.8-5.3,1-8c0.2-2.7,0.5-5.5,0.7-8.2c-1.5,2.5-3.3,4.6-5.3,6.4c-2,1.8-3.9,3.1-5.9,3.9
		c-1.9,0.8-3.7,1.1-5.4,0.8c-1.7-0.3-2.9-1.2-3.8-2.9c-0.9-1.6-1.2-4-1.1-7.1c0.2-3.1,1.1-7.1,2.7-12c0.1-0.2,0.2-0.5,0.4-0.9
		c0.2-0.4,0.5-0.7,0.8-1s0.5-0.4,0.8-0.5c0.3,0,0.5,0.2,0.6,0.6C43,25.9,42,29,41.5,31.7c-0.5,2.6-0.7,4.8-0.4,6.4
		c0.2,1.7,0.8,2.8,1.6,3.5s1.9,1,3.1,0.8c1.2-0.2,2.6-0.8,4-1.8c1.5-1,2.9-2.4,4.4-4.2c1.4-1.8,2.8-3.9,4.1-6.4
		c1.3-2.5,2.3-5.3,3.2-8.5c0.2-0.7,0.3-1.3,0.3-1.8c0-0.5,0.2-1,0.4-1.7c0.1-0.4,0.4-0.6,0.6-0.8c0.3-0.2,0.6-0.2,0.9-0.2
		c0.3,0,0.6,0.1,0.8,0.2C64.7,17.5,64.9,17.7,65,17.9z"/>
	<path class="st2" d="M85.5,46.4c0.1-0.1,0.3-0.2,0.5-0.2c0.2,0,0.3,0.1,0.5,0.2c0.1,0.1,0.2,0.3,0.3,0.4s0,0.4,0,0.5
		c-0.2,0.5-0.6,0.9-1,1.4c-0.4,0.4-0.9,0.9-1.4,1.2c-0.5,0.4-1,0.8-1.6,1.1c-0.6,0.3-1.1,0.6-1.7,0.8c-0.3,1.1-0.7,2.1-1,3
		c-0.4,1-0.8,1.9-1.3,2.9c-0.2,0.5-0.6,0.9-1.1,1.2c-0.5,0.3-1,0.6-1.6,0.7c-0.6,0.2-1.1,0.3-1.7,0.3c-0.6,0-1-0.1-1.4-0.2
		c-0.8-0.2-1.4-0.7-1.9-1.5c-0.5-0.7-0.9-1.6-1.2-2.6c-0.3-1-0.5-2.1-0.5-3.2c-0.1-1.2,0-2.3,0.2-3.4c0.2-1.1,0.4-2.1,0.8-3
		c0.4-0.9,0.9-1.7,1.4-2.2c0.3-0.2,0.7-0.5,1.1-0.6c0.5-0.2,1-0.3,1.5-0.3c0.3-1.1,0.8-2.1,1.6-2.8c0.8-0.7,1.8-1,3.1-0.8
		c0.5,0.1,1,0.3,1.4,0.7c0.4,0.4,0.7,0.9,1,1.4c0.3,0.5,0.5,1.1,0.6,1.6c0.1,0.5,0.2,1,0.2,1.4c0,0.9-0.1,1.8-0.2,2.7
		c-0.1,0.9-0.2,1.8-0.4,2.7c0.9-0.4,1.7-0.9,2.4-1.5C84.6,47.7,85.2,47.1,85.5,46.4z M74.3,57.6c0.6-0.4,1.2-1,1.7-2
		c0.5-1,0.9-2.1,1.2-3.5c-0.6-0.2-1-0.6-1.5-1.2c-0.4-0.5-0.8-1.1-1-1.8c-0.3-0.7-0.5-1.4-0.6-2.2S74,45.4,74,44.6
		c-0.6,0.2-1.2,0.6-1.5,1.4s-0.7,1.7-0.8,2.8c-0.2,1.1-0.2,2.2-0.2,3.3c0,1.2,0.2,2.2,0.4,3.1c0.2,0.9,0.6,1.6,1,2.1
		C73.3,57.8,73.7,57.9,74.3,57.6z M78.5,41.5c-0.4,0-0.8,0.2-1,0.6c-0.2,0.4-0.4,0.8-0.6,1.2c-0.1,0.3-0.2,0.8-0.3,1.4
		s-0.1,1.3-0.1,2c0,0.7,0.1,1.3,0.3,2c0.2,0.6,0.4,1.1,0.8,1.5c0.3-1.5,0.5-3,0.6-4.5C78.5,44.1,78.5,42.7,78.5,41.5z"/>
	<path class="st2" d="M85.9,42.6c0.1-0.2,0.3-0.4,0.6-0.4c0.3,0,0.7,0,1.1,0c0.4,0.1,0.7,0.2,1,0.3c0.3,0.2,0.4,0.3,0.4,0.5
		c-0.2,0.2-0.4,0.6-0.6,1.4c-0.2,0.7-0.5,1.6-0.7,2.6c-0.2,1-0.4,2.1-0.6,3.2s-0.2,2.2-0.2,3.2s0.1,1.8,0.3,2.5
		c0.2,0.7,0.5,1.1,1,1.1c0.4,0.1,0.9-0.1,1.4-0.7s1-1.3,1.5-2.3c0.5-0.9,1-2,1.5-3.1c0.5-1.1,0.9-2.2,1.3-3.2c0.4-1,0.7-1.9,0.9-2.6
		c0.2-0.7,0.4-1.1,0.5-1.2c0.2-0.4,0.4-0.6,0.7-0.6c0.3,0,0.6,0,0.9,0.1c0.3,0.1,0.6,0.3,0.8,0.6s0.4,0.5,0.5,0.8
		c-0.1,0.9-0.3,2-0.4,3.2c-0.2,1.2-0.4,2.4-0.6,3.7c-0.2,1.2-0.4,2.5-0.6,3.7c-0.2,1.2-0.3,2.3-0.4,3.3c-0.1,1-0.2,1.8-0.2,2.4
		s0.1,1,0.2,1.1c0.3,0.2,0.7,0,1.2-0.6c0.5-0.6,1-1.4,1.6-2.4c0.6-1,1.2-2.1,1.8-3.4c0.6-1.3,1.2-2.5,1.7-3.7
		c0.5-1.2,0.9-2.3,1.3-3.3c0.4-1,0.6-1.8,0.7-2.3c0.1-0.2,0.2-0.3,0.4-0.3c0.2,0,0.3,0,0.5,0.1c0.2,0.1,0.3,0.2,0.4,0.4
		c0.1,0.2,0.2,0.3,0.1,0.5c-0.2,0.9-0.6,2-1,3.2c-0.4,1.2-0.9,2.5-1.5,3.8c-0.6,1.3-1.2,2.6-1.8,3.8c-0.7,1.2-1.3,2.4-2,3.3
		c-0.7,1-1.3,1.7-2,2.2c-0.7,0.5-1.3,0.7-1.9,0.6c-0.7-0.2-1.3-0.6-1.7-1.2c-0.4-0.7-0.6-1.5-0.8-2.5c-0.1-1-0.1-2.1,0-3.3
		c0.1-1.2,0.2-2.5,0.4-3.7c-0.5,0.9-1,1.8-1.5,2.6c-0.5,0.8-1.1,1.5-1.6,2.1c-0.8,0.8-1.7,1.3-2.5,1.3c-0.8,0-1.6-0.2-2.2-0.6
		c-0.6-0.5-1.2-1.1-1.6-2s-0.6-1.7-0.6-2.7c0.1-2.1,0.3-4,0.6-5.9C84.6,46.4,85.1,44.6,85.9,42.6z"/>
	<path class="st2" d="M111,50.2c0.3,0.6,0.4,1.3,0.4,2.2c0,0.8-0.2,1.7-0.4,2.6c-0.2,0.9-0.5,1.9-0.7,2.9c-0.3,1-0.5,1.9-0.7,2.7
		c-0.2,0.8-0.3,1.6-0.4,2.3c0,0.7,0.1,1.2,0.4,1.6l0.2,0.2c0.3,0.4,0.7,0.3,1.2-0.3s1-1.4,1.5-2.6c0.5-1.1,1.1-2.4,1.6-3.9
		s1-3,1.5-4.4c0.5-1.4,0.9-2.8,1.2-4c0.3-1.2,0.6-2.1,0.8-2.7c0.1-0.2,0.2-0.3,0.4-0.3c0.2,0,0.3,0,0.5,0.1c0.2,0.1,0.3,0.2,0.4,0.4
		c0.1,0.2,0.2,0.3,0.1,0.5c-0.2,0.9-0.5,2.1-0.9,3.6c-0.4,1.5-0.9,3-1.5,4.7c-0.5,1.6-1.1,3.2-1.7,4.7c-0.6,1.5-1.1,2.7-1.6,3.7
		c-0.2,0.4-0.5,0.9-0.7,1.4c-0.3,0.5-0.6,0.9-1,1.2c-0.1,0.1-0.3,0.2-0.5,0.2c-0.2,0-0.3,0-0.5,0c-0.5,0-1-0.2-1.5-0.4
		c-0.5-0.2-1-0.5-1.4-0.9c-0.4-0.4-0.8-0.8-1.2-1.2s-0.6-0.9-0.7-1.3c-0.2-0.8-0.2-1.8,0-2.9c0.3-1.1,0.6-2.3,1-3.5s0.7-2.4,0.9-3.5
		s0.2-2.1,0-2.9c-0.1-0.4-0.6-0.8-1.3-1.2s-1.5-0.9-2.3-1.4s-1.5-1.2-2.2-1.9c-0.6-0.7-0.9-1.6-0.9-2.7c0-0.4,0-0.9,0.1-1.4
		s0.1-0.9,0.2-1.3c0.1-0.4,0.2-0.8,0.4-1.2c0.2-0.4,0.5-0.7,0.8-1c0.4-0.4,0.9-0.5,1.5-0.4c0.6,0.1,1.1,0.3,1.6,0.6
		c0.5,0.3,0.9,0.7,1.2,1.2c0.3,0.5,0.5,0.9,0.5,1.4c0,1-0.2,2-0.4,2.8c-0.3,0.9-0.6,1.7-1,2.6c0.4,0.3,0.9,0.5,1.4,0.8
		c0.5,0.2,1,0.5,1.5,0.8c0.5,0.3,0.9,0.6,1.3,1C110.4,49.1,110.8,49.6,111,50.2z M105.8,41.1c0-0.1,0-0.3,0-0.6s-0.1-0.5-0.1-0.7
		c0-0.1-0.1-0.2-0.2-0.2c-0.3,0.1-0.6,0.3-0.8,0.7c-0.2,0.4-0.4,0.8-0.4,1.4c-0.1,0.5-0.1,1.1-0.1,1.6c0,0.6,0.2,1.1,0.4,1.6
		c0,0,0,0,0,0.1c0,0,0,0,0,0.1c0.3-0.6,0.5-1.2,0.7-1.9S105.7,41.8,105.8,41.1z M105.1,39.3L105.1,39.3L105.1,39.3z"/>
	<path class="st2" d="M142.6,41c0,0.3-0.2,1.1-0.4,2.2c-0.2,1.1-0.5,2.5-0.8,4c-0.3,1.5-0.6,3.1-0.9,4.8s-0.5,3.2-0.6,4.5
		c-0.1,1.3-0.1,2.4,0,3.3c0.1,0.8,0.5,1.2,1,1.1c0.8-0.2,1.5-0.6,2.2-1.1c0.7-0.6,1.4-1.3,2.1-2.1c0.7-0.8,1.3-1.7,1.9-2.7
		c0.6-1,1.2-2,1.7-3s1-1.9,1.5-2.9c0.4-0.9,0.8-1.7,1.2-2.5c0.1-0.2,0.2-0.3,0.3-0.4c0.1-0.1,0.3-0.1,0.4-0.1s0.3,0.1,0.4,0.2
		c0.1,0.1,0.1,0.2,0.1,0.4c-0.1,0.7-0.4,1.5-0.8,2.6c-0.4,1.1-0.9,2.2-1.6,3.4c-0.6,1.2-1.3,2.5-2.1,3.7s-1.6,2.4-2.5,3.4
		c-0.9,1-1.7,1.8-2.6,2.4c-0.9,0.6-1.7,0.9-2.5,0.9c-1.1-0.1-1.9-0.5-2.5-1.3c-0.6-0.8-1-1.8-1.2-3.1c-0.2-1.2-0.3-2.6-0.2-4.1
		c0.1-1.5,0.2-3,0.4-4.5l-1.2,1.8c-0.4,0.6-0.8,1.1-1.1,1.4c-0.3,0.3-0.7,0.7-1.3,1.2c-0.3,0.2-0.6,0.4-1,0.4s-0.7,0-1.1-0.1
		c-0.6-0.2-1-0.4-1.4-0.6c-0.3-0.2-0.6-0.5-0.8-0.8c-0.2-0.3-0.4-0.7-0.5-1.1c-0.1-0.4-0.2-0.9-0.2-1.5c-0.1-0.6,0-1.3,0.2-2.1
		c0.2-0.8,0.5-1.5,0.9-2.2s0.9-1.4,1.4-2c0.6-0.6,1.2-1.1,1.8-1.4s1.4-0.5,2.2-0.5c0.8,0,1.6,0.3,2.4,0.8c0.3-0.6,0.5-1.1,0.8-1.7
		c0.2-0.6,0.5-1.2,0.7-1.8c-0.1-0.3,0.1-0.5,0.4-0.6s0.7,0,1.1,0.1c0.4,0.1,0.8,0.3,1.2,0.6C142.3,40.3,142.5,40.6,142.6,41z
		 M131.5,52.4c0.1,0.6,0.3,0.8,0.6,0.7c0.3-0.1,0.6-0.3,0.9-0.7c0.3-0.4,0.6-0.8,0.9-1.2s0.4-0.7,0.5-0.8c0.6-0.9,1.1-1.9,1.5-2.9
		c0.5-1,0.9-2,1.4-3l0,0c-1.1-0.3-2-0.2-2.8,0.2c-0.8,0.5-1.5,1.1-2,2c-0.5,0.8-0.8,1.8-1,2.9C131.3,50.5,131.3,51.5,131.5,52.4z"/>
	<path class="st2" d="M158.2,50.2c0.3,0.6,0.4,1.3,0.4,2.2c0,0.8-0.2,1.7-0.4,2.6c-0.2,0.9-0.5,1.9-0.7,2.9c-0.3,1-0.5,1.9-0.7,2.7
		s-0.3,1.6-0.4,2.3c0,0.7,0.1,1.2,0.4,1.6l0.2,0.2c0.3,0.4,0.7,0.3,1.2-0.3c0.5-0.6,1-1.4,1.5-2.6s1.1-2.4,1.6-3.9s1-3,1.5-4.4
		c0.5-1.4,0.9-2.8,1.2-4c0.3-1.2,0.6-2.1,0.8-2.7c0.1-0.2,0.2-0.3,0.4-0.3c0.2,0,0.3,0,0.5,0.1c0.2,0.1,0.3,0.2,0.4,0.4
		c0.1,0.2,0.2,0.3,0.1,0.5c-0.2,0.9-0.5,2.1-0.9,3.6c-0.4,1.5-0.9,3-1.5,4.7s-1.1,3.2-1.7,4.7s-1.1,2.7-1.6,3.7
		c-0.2,0.4-0.5,0.9-0.7,1.4c-0.3,0.5-0.6,0.9-1,1.2c-0.1,0.1-0.3,0.2-0.5,0.2c-0.2,0-0.3,0-0.5,0c-0.5,0-1-0.2-1.5-0.4
		c-0.5-0.2-1-0.5-1.4-0.9c-0.4-0.4-0.8-0.8-1.2-1.2c-0.3-0.4-0.6-0.9-0.7-1.3c-0.2-0.8-0.2-1.8,0-2.9s0.6-2.3,1-3.5
		c0.4-1.2,0.7-2.4,0.9-3.5s0.2-2.1,0-2.9c-0.1-0.4-0.6-0.8-1.3-1.2c-0.7-0.4-1.5-0.9-2.3-1.4s-1.5-1.2-2.2-1.9s-0.9-1.6-0.9-2.7
		c0-0.4,0-0.9,0.1-1.4c0-0.5,0.1-0.9,0.2-1.3c0.1-0.4,0.2-0.8,0.4-1.2c0.2-0.4,0.5-0.7,0.8-1c0.4-0.4,0.9-0.5,1.5-0.4
		c0.6,0.1,1.1,0.3,1.6,0.6c0.5,0.3,0.9,0.7,1.2,1.2c0.3,0.5,0.5,0.9,0.5,1.4c0,1-0.2,2-0.4,2.8s-0.6,1.7-1,2.6
		c0.4,0.3,0.9,0.5,1.4,0.8c0.5,0.2,1,0.5,1.5,0.8c0.5,0.3,0.9,0.6,1.3,1C157.7,49.1,158,49.6,158.2,50.2z M153,41.1
		c0-0.1,0-0.3,0-0.6c0-0.3-0.1-0.5-0.1-0.7c0-0.1-0.1-0.2-0.2-0.2c-0.3,0.1-0.6,0.3-0.8,0.7c-0.2,0.4-0.4,0.8-0.4,1.4
		c-0.1,0.5-0.1,1.1-0.1,1.6c0,0.6,0.2,1.1,0.4,1.6c0,0,0,0,0,0.1s0,0,0,0.1c0.3-0.6,0.5-1.2,0.7-1.9C152.8,42.5,152.9,41.8,153,41.1
		z M152.3,39.3L152.3,39.3L152.3,39.3z"/>
	<path class="st2" d="M167.9,45.7c-0.3,0.8-0.5,1.6-0.7,2.4c-0.2,0.8-0.2,1.5-0.2,2.3c0,1.6,0.3,2.6,0.8,3.3s1.3,0.9,2.1,0.9
		s1.8-0.3,2.8-0.9c1-0.6,2-1.2,2.9-2c0.9-0.8,1.7-1.6,2.3-2.5c0.6-0.9,1-1.7,1.1-2.4c0.2-0.4,0.4-0.6,0.7-0.5
		c0.3,0.1,0.4,0.3,0.4,0.6c-0.2,1.1-0.7,2.3-1.5,3.4c-0.8,1.2-1.8,2.2-2.9,3.1c-1.1,0.9-2.3,1.6-3.6,2.2c-1.3,0.5-2.5,0.7-3.7,0.6
		s-2.2-0.6-3.1-1.5c-0.9-0.9-1.5-2.3-1.7-4.1c-0.2-1.6-0.1-3.2,0.5-4.8c0.6-1.6,1.2-3.1,2.1-4.6c0.1-0.2,0.3-0.5,0.5-0.9
		c0.2-0.4,0.5-0.7,0.8-1c0.3-0.3,0.6-0.6,0.9-0.9c0.3-0.2,0.7-0.4,1-0.5c0.3,0,0.6,0,1,0c0.4,0.1,0.7,0.1,1.1,0.2
		c0.3,0.1,0.7,0.2,1.1,0.4c0.8,0.5,1.1,1.1,1.1,1.8c0,0.8-0.3,1.5-0.9,2.2s-1.3,1.4-2.1,1.9c-0.9,0.6-1.7,0.9-2.6,1H167.9z
		 M171.4,40.2c-0.5,0.4-0.9,0.9-1.4,1.6c-0.5,0.7-0.9,1.4-1.3,2.2c0.8-0.4,1.5-0.9,2.1-1.6c0.6-0.7,1-1.4,1-2.2H171.4z"/>
	<path class="st2" d="M204,41c0,0.3-0.2,1.1-0.4,2.2c-0.2,1.1-0.5,2.5-0.8,4c-0.3,1.5-0.6,3.1-0.9,4.8c-0.3,1.7-0.5,3.2-0.6,4.5
		c-0.1,1.3-0.1,2.4,0,3.3c0.1,0.8,0.5,1.2,1,1.1c0.7-0.2,1.5-0.6,2.2-1.1c0.7-0.6,1.4-1.3,2.1-2.1c0.7-0.8,1.3-1.7,1.9-2.7
		c0.6-1,1.2-2,1.7-3s1-1.9,1.5-2.9c0.4-0.9,0.8-1.7,1.2-2.5c0.1-0.2,0.2-0.3,0.3-0.4c0.1-0.1,0.3-0.1,0.4-0.1c0.1,0,0.3,0.1,0.4,0.2
		s0.1,0.2,0.1,0.4c-0.1,0.7-0.4,1.5-0.8,2.6c-0.4,1.1-0.9,2.2-1.6,3.4c-0.6,1.2-1.3,2.5-2.1,3.7s-1.6,2.4-2.5,3.4
		c-0.9,1-1.7,1.8-2.6,2.4c-0.9,0.6-1.7,0.9-2.5,0.9c-1.1-0.1-1.9-0.5-2.5-1.3c-0.6-0.8-1-1.8-1.2-3.1c-0.2-1.2-0.3-2.6-0.2-4.1
		c0.1-1.5,0.2-3,0.4-4.5l-1.2,1.8c-0.4,0.6-0.8,1.1-1.1,1.4c-0.3,0.3-0.7,0.7-1.3,1.2c-0.3,0.2-0.6,0.4-1,0.4
		c-0.4,0.1-0.7,0-1.1-0.1c-0.6-0.2-1-0.4-1.4-0.6c-0.3-0.2-0.6-0.5-0.8-0.8s-0.4-0.7-0.5-1.1c-0.1-0.4-0.2-0.9-0.2-1.5
		c-0.1-0.6,0-1.3,0.2-2.1c0.2-0.8,0.5-1.5,0.9-2.2c0.4-0.7,0.9-1.4,1.4-2c0.6-0.6,1.2-1.1,1.8-1.4c0.7-0.3,1.4-0.5,2.2-0.5
		c0.8,0,1.6,0.3,2.4,0.8c0.3-0.6,0.5-1.1,0.8-1.7c0.2-0.6,0.5-1.2,0.7-1.8c-0.1-0.3,0.1-0.5,0.4-0.6c0.3-0.1,0.7,0,1.1,0.1
		s0.8,0.3,1.2,0.6C203.7,40.3,203.9,40.6,204,41z M192.9,52.4c0.1,0.6,0.3,0.8,0.6,0.7c0.3-0.1,0.6-0.3,0.9-0.7
		c0.3-0.4,0.6-0.8,0.9-1.2s0.4-0.7,0.5-0.8c0.6-0.9,1.1-1.9,1.5-2.9c0.5-1,0.9-2,1.4-3l0,0c-1.1-0.3-2-0.2-2.8,0.2
		c-0.8,0.5-1.5,1.1-2,2c-0.5,0.8-0.8,1.8-1,2.9S192.7,51.5,192.9,52.4z"/>
	<path class="st2" d="M215,46.5c-0.1,0.1-0.2,0.1-0.3,0.1c-0.1,0.7-0.1,1.4-0.1,2.1s0,1.3,0,1.8c0.1,0.6,0.1,1.3,0.1,2.3
		c0,1,0.1,2,0.3,3.1c0.2,1,0.4,2,0.7,2.8c0.3,0.8,0.9,1.4,1.5,1.6c0.9,0.1,1.7-0.2,2.4-0.9c0.7-0.8,1.5-1.8,2.2-3.1
		c0.7-1.3,1.4-2.9,2.2-4.7c0.8-1.8,1.6-3.6,2.4-5.5c0.1,0,0.3,0,0.5,0c0.2,0,0.3,0.1,0.4,0.2c0.1,0.1,0.2,0.2,0.2,0.4
		c0,0.2,0,0.3-0.1,0.5c-0.4,1.2-0.8,2.5-1.3,4s-1.1,3-1.8,4.5c-0.7,1.5-1.5,2.8-2.4,4c-0.9,1.2-1.9,2-3,2.6
		c-0.3,0.1-0.7,0.2-1.1,0.1c-0.5,0-0.9-0.1-1.2-0.1c-0.8-0.1-1.4-0.4-2-0.9c-0.6-0.5-1-1.2-1.4-1.9s-0.7-1.6-0.9-2.5
		s-0.4-1.8-0.5-2.7c-0.1-0.9-0.2-1.8-0.2-2.6c0-0.8-0.1-1.5-0.1-2.1c0.1-3.9,0.2-7.8,0.6-11.5c0.3-3.8,1-7.6,1.9-11.4
		c0.2-0.7,0.4-1.4,0.7-2.1c0.3-0.7,0.7-1.5,1.1-2.2s0.9-1.4,1.4-2c0.5-0.6,1.1-1.2,1.6-1.6c0.2-0.2,0.5-0.2,1-0.2
		c0.4,0,0.7,0.1,1,0.1c0.9,0.3,1.5,0.9,1.8,1.9c0.3,0.9,0.5,2.1,0.4,3.4c-0.1,1.3-0.3,2.8-0.7,4.5c-0.4,1.6-0.9,3.3-1.4,4.9
		c-0.6,1.7-1.2,3.3-1.8,4.8s-1.3,2.9-1.8,4.2c-0.6,1.2-1.1,2.2-1.5,3S215.1,46.4,215,46.5z M220.8,21.1c-1.1,1.1-1.9,2.4-2.6,4.2
		c-0.7,1.7-1.3,3.6-1.7,5.6c-0.4,2-0.8,4.2-1,6.4c-0.2,2.2-0.4,4.3-0.5,6.4c1.4-2.9,2.6-5.6,3.4-8c0.9-2.4,1.5-4.5,2-6.4
		c0.4-1.9,0.7-3.5,0.7-4.8S221,22,220.8,21.1z"/>
	<path class="st2" d="M228.5,46.5c-0.1,0.1-0.2,0.1-0.3,0.1c-0.1,0.7-0.1,1.4-0.1,2.1s0,1.3,0,1.8c0.1,0.6,0.1,1.3,0.1,2.3
		c0,1,0.1,2,0.3,3.1c0.2,1,0.4,2,0.7,2.8c0.3,0.8,0.9,1.4,1.5,1.6c0.9,0.1,1.7-0.2,2.4-0.9c0.7-0.8,1.5-1.8,2.2-3.1
		c0.7-1.3,1.4-2.9,2.2-4.7c0.8-1.8,1.6-3.6,2.4-5.5c0.1,0,0.3,0,0.5,0c0.2,0,0.3,0.1,0.4,0.2c0.1,0.1,0.2,0.2,0.2,0.4
		c0,0.2,0,0.3-0.1,0.5c-0.4,1.2-0.8,2.5-1.3,4s-1.1,3-1.8,4.5c-0.7,1.5-1.5,2.8-2.4,4c-0.9,1.2-1.9,2-3,2.6
		c-0.3,0.1-0.7,0.2-1.1,0.1c-0.5,0-0.9-0.1-1.2-0.1c-0.8-0.1-1.4-0.4-2-0.9c-0.6-0.5-1-1.2-1.4-1.9s-0.7-1.6-0.9-2.5
		s-0.4-1.8-0.5-2.7c-0.1-0.9-0.2-1.8-0.2-2.6c0-0.8-0.1-1.5-0.1-2.1c0.1-3.9,0.2-7.8,0.6-11.5c0.3-3.8,1-7.6,1.9-11.4
		c0.2-0.7,0.4-1.4,0.7-2.1c0.3-0.7,0.7-1.5,1.1-2.2s0.9-1.4,1.4-2c0.5-0.6,1.1-1.2,1.6-1.6c0.2-0.2,0.5-0.2,1-0.2
		c0.4,0,0.7,0.1,1,0.1c0.9,0.3,1.5,0.9,1.8,1.9c0.3,0.9,0.5,2.1,0.4,3.4c-0.1,1.3-0.3,2.8-0.7,4.5c-0.4,1.6-0.9,3.3-1.4,4.9
		c-0.6,1.7-1.2,3.3-1.8,4.8s-1.3,2.9-1.8,4.2c-0.6,1.2-1.1,2.2-1.5,3S228.6,46.4,228.5,46.5z M234.2,21.1c-1.1,1.1-1.9,2.4-2.6,4.2
		c-0.7,1.7-1.3,3.6-1.7,5.6c-0.4,2-0.8,4.2-1,6.4c-0.2,2.2-0.4,4.3-0.5,6.4c1.4-2.9,2.6-5.6,3.4-8c0.9-2.4,1.5-4.5,2-6.4
		c0.4-1.9,0.7-3.5,0.7-4.8S234.4,22,234.2,21.1z"/>
	<path class="st2" d="M257.6,44.7c0,0.2-0.1,0.4-0.2,0.5s-0.3,0.1-0.4,0.1c-0.2,0-0.3,0-0.4-0.1c-0.1-0.1-0.2-0.2-0.2-0.3
		c0.1-0.3,0.2-0.8,0.2-1.3c0.1-0.5,0-1,0-1.4c-0.1-0.4-0.2-0.7-0.4-0.9c-0.2-0.2-0.4-0.1-0.8,0.2c-0.5,0.5-0.8,1.2-0.8,2.1
		c0,0.8,0,1.7,0.2,2.7c0.2,1,0.4,1.9,0.7,2.9c0.3,0.9,0.6,1.8,0.9,2.5c1.1-1,2.1-1.9,3.3-2.6c1.1-0.8,2.4-1.5,3.7-2.1
		c0.2,0,0.3,0,0.5,0c0.2,0.1,0.3,0.1,0.4,0.3c0.1,0.1,0.1,0.3,0.1,0.4c0,0.2-0.1,0.3-0.3,0.4c-1.4,0.8-2.7,1.6-3.9,2.4
		c-1.2,0.8-2.2,1.7-3.2,2.7c0.4,1.2,0.7,2.5,1.1,3.8c0.4,1.3,0.7,2.6,1,3.9s0.5,2.6,0.6,3.9s0.1,2.6,0.1,3.9
		c-0.1,0.8-0.3,1.7-0.7,2.7c-0.4,0.9-0.9,1.8-1.6,2.6c-0.7,0.8-1.4,1.5-2.3,2s-1.8,0.7-2.9,0.6c-1.3-0.1-2.4-0.5-3.2-1.2
		c-0.8-0.7-1.4-1.5-1.7-2.5c-0.3-1-0.5-2.1-0.5-3.2s0.1-2.3,0.4-3.4c0.6-2.3,1.4-4.4,2.5-6.3c1.1-1.9,2.5-3.8,4.2-5.7
		c-0.3-1.3-0.7-2.7-1.1-4c-0.4-1.3-0.7-2.6-0.8-3.8c-0.2-1.2-0.1-2.3,0.1-3.3c0.2-1,0.7-1.8,1.6-2.5c0.6-0.5,1.2-0.8,1.8-0.7
		c0.6,0.1,1.1,0.3,1.5,0.8c0.4,0.4,0.6,1,0.8,1.7S257.8,43.9,257.6,44.7z M249.6,64c-0.1,0.3-0.2,0.8-0.4,1.4
		c-0.2,0.6-0.3,1.3-0.4,2c-0.1,0.7-0.1,1.5-0.1,2.3s0.1,1.5,0.3,2.1c0.2,0.7,0.5,1.2,0.9,1.6c0.4,0.4,1,0.7,1.7,0.8
		c0.6,0.1,1.2-0.1,1.7-0.6c0.6-0.5,1-1.1,1.5-1.8c0.4-0.7,0.8-1.5,1.1-2.2s0.4-1.4,0.5-1.9c0.1-1.9,0-3.8-0.5-5.7
		c-0.4-1.9-0.9-3.8-1.3-5.7c-0.9,1.2-1.8,2.4-2.7,3.7C250.9,61.1,250.2,62.5,249.6,64z"/>
	<path class="st2" d="M266,45.7c-0.3,0.8-0.5,1.6-0.7,2.4c-0.2,0.8-0.2,1.5-0.2,2.3c0,1.6,0.3,2.6,0.8,3.3c0.6,0.6,1.3,0.9,2.1,0.9
		c0.9,0,1.8-0.3,2.8-0.9c1-0.6,2-1.2,2.9-2c0.9-0.8,1.7-1.6,2.3-2.5c0.6-0.9,1-1.7,1.1-2.4c0.2-0.4,0.4-0.6,0.7-0.5
		c0.3,0.1,0.4,0.3,0.4,0.6c-0.2,1.1-0.7,2.3-1.5,3.4c-0.8,1.2-1.8,2.2-2.9,3.1c-1.1,0.9-2.3,1.6-3.6,2.2c-1.3,0.5-2.5,0.7-3.7,0.6
		s-2.2-0.6-3.1-1.5c-0.9-0.9-1.5-2.3-1.7-4.1c-0.2-1.6-0.1-3.2,0.5-4.8c0.6-1.6,1.2-3.1,2.1-4.6c0.1-0.2,0.3-0.5,0.5-0.9
		c0.2-0.4,0.5-0.7,0.8-1c0.3-0.3,0.6-0.6,0.9-0.9s0.7-0.4,1-0.5c0.3,0,0.6,0,1,0c0.4,0.1,0.7,0.1,1.1,0.2c0.3,0.1,0.7,0.2,1.1,0.4
		c0.8,0.5,1.1,1.1,1.1,1.8c0,0.8-0.3,1.5-0.9,2.2c-0.6,0.7-1.3,1.4-2.1,1.9c-0.9,0.6-1.7,0.9-2.6,1H266z M269.5,40.2
		c-0.5,0.4-0.9,0.9-1.4,1.6c-0.5,0.7-0.9,1.4-1.3,2.2c0.8-0.4,1.5-0.9,2.1-1.6c0.6-0.7,1-1.4,1-2.2H269.5z"/>
	<path class="st2" d="M283.8,23.4c0.4,0,0.1,2.4-1.1,7.2c1.3-0.3,2.5-0.6,3.6-0.9c1.1-0.3,2.1-0.5,2.9-0.6c0.5-0.1,1.1-0.2,2-0.3
		c0.8-0.1,1.7-0.2,2.5-0.1c0.8,0,1.5,0.2,2.1,0.6c0.6,0.4,0.8,1,0.7,1.8c0,0.1,0,0.3-0.1,0.6s-0.1,0.5-0.2,0.8
		c-0.1,0.2-0.2,0.5-0.3,0.7c-0.1,0.2-0.2,0.4-0.3,0.5c-0.1,0.2-0.3,0.2-0.5,0.2c-0.2,0-0.3-0.1-0.4-0.2c-0.1-0.1-0.2-0.3-0.3-0.4
		c-0.1-0.2-0.1-0.4-0.1-0.5c0.1-0.4,0.1-0.7,0.2-1.1c0.1-0.3,0.2-0.7,0.2-1.1c-1.5,0.1-3,0.3-4.5,0.7c-1.5,0.4-2.9,0.8-4.4,1.2
		c-0.6,0.2-1.3,0.3-2,0.5s-1.3,0.3-2,0.4c-0.4,1.8-0.9,3.8-1.5,6c-0.6,2.2-1.2,4.6-1.8,7.3l-0.1,0.2c-0.2,1.7-0.3,3.2-0.4,4.7
		c-0.1,1.5-0.2,2.8-0.2,4c-0.1,2.1,0.1,3.6,0.4,4.6c0.4,1,0.9,1.5,1.5,1.5s1.5-0.4,2.4-1.3c0.9-0.9,1.8-2.1,2.8-3.6
		c0.6-0.9,1.1-1.9,1.6-2.9c0.5-1,0.9-2,1.3-3c0.3-0.7,0.5-1.4,0.8-2.1c0.2-0.7,0.5-1.4,0.7-2.1c0-0.1,0-0.2,0-0.3s0-0.2,0.1-0.2
		c0.2-0.2,0.3-0.3,0.5-0.3s0.3,0.1,0.4,0.2c0.1,0.1,0.2,0.3,0.3,0.5c0.1,0.2,0.1,0.4,0.1,0.5c0,0.2-0.1,0.7-0.3,1.2s-0.4,1.2-0.7,2
		c-0.3,0.7-0.6,1.5-1,2.4s-0.7,1.6-1,2.4c-0.3,0.7-0.7,1.4-1,2c-0.3,0.6-0.5,1-0.6,1.2c-1.1,1.9-2.3,3.4-3.6,4.3
		c-1.3,1-2.5,1.4-3.5,1.3c-1.1-0.1-2-0.8-2.7-2c-0.7-1.2-1.1-3.1-1.1-5.6c0-1.3,0-2.9,0.1-4.6c0.1-1.7,0.2-3.5,0.4-5.5
		c0.2-1.9,0.4-3.9,0.6-5.9c0.2-2,0.5-4,0.9-6c-0.4,0.1-0.9,0.1-1.3,0.2s-0.8,0.1-1.2,0.2c-0.5,0.1-1.3,0.2-2.2,0.3
		c-1,0.1-2,0.1-2.9,0.1c-1-0.1-1.9-0.2-2.7-0.5c-0.8-0.3-1.3-0.8-1.5-1.5c-0.1-0.2-0.1-0.4-0.1-0.7c0-0.3,0-0.5,0.1-0.7
		c0.2-0.4,0.4-0.5,0.5-0.4c0.1,0.1,0.2,0.2,0.3,0.5c0.1,0.2,0.2,0.5,0.3,0.8c0.1,0.3,0.3,0.5,0.5,0.5c1.1,0.2,2.7,0.2,4.6,0
		c1.9-0.3,3.9-0.7,6-1.1c0.4-1.8,0.8-3.5,1.2-5.1c0.4-1.6,0.9-3,1.4-4.2c0,0,0,0,0,0c0.1-0.3,0.4-0.5,0.7-0.5s0.7,0,1,0.1
		c0.3,0.1,0.6,0.3,0.9,0.5C283.6,22.9,283.7,23.2,283.8,23.4L283.8,23.4z"/>
	<path class="st2" d="M293.1,57.6c0.1-0.2,0.2-0.3,0.3-0.3c0.1,0,0.3,0,0.4,0.1c0.2,0.1,0.3,0.2,0.4,0.3c0.1,0.1,0.2,0.3,0.2,0.4
		c0.1,0.1,0.1,0.1,0.2,0.3c0.1,0.1,0.2,0.3,0.3,0.4c0.1,0.2,0.1,0.3,0.1,0.5c0,0.2-0.1,0.3-0.2,0.4c-0.2,0.3-0.4,0.5-0.7,0.5
		c-0.3,0-0.5-0.1-0.8-0.3c-0.3-0.2-0.5-0.4-0.7-0.7c-0.2-0.3-0.3-0.6-0.3-0.8c0-0.1,0.1-0.1,0.2-0.2l-0.1,0c0-0.1,0.1-0.2,0.2-0.3
		C292.8,57.7,292.9,57.7,293.1,57.6z M294.6,24.6c0.1-0.2,0.3-0.3,0.5-0.4c0.3,0,0.5,0,0.8,0c0.3,0.1,0.5,0.2,0.8,0.3
		c0.2,0.1,0.4,0.3,0.4,0.4c0.1,2.4,0.1,4.7,0,7c-0.1,2.3-0.3,4.6-0.5,6.8c-0.2,2.2-0.5,4.5-0.8,6.8c-0.3,2.3-0.5,4.6-0.8,6.9
		c0,0.2-0.1,0.4-0.2,0.4c-0.1,0-0.3,0-0.4-0.1c-0.2-0.1-0.3-0.2-0.4-0.4c-0.1-0.2-0.2-0.3-0.2-0.5c0-0.7,0-1.3-0.1-1.9
		c0-0.6,0-1.1-0.1-1.7c0-0.6,0-1.1,0-1.7c0-0.6,0-1.2,0-1.8c0.1-3.5,0.2-6.9,0.4-10.2C294,31.5,294.2,28.1,294.6,24.6z"/>
</g>
</svg>
